PING fd00::c30c:0:0:4(fd00::c30c:0:0:4) 56 data bytes
64 bytes from fd00::c30c:0:0:4: icmp_seq=1 ttl=61 time=68.2 ms
64 bytes from fd00::c30c:0:0:4: icmp_seq=2 ttl=61 time=29.6 ms
64 bytes from fd00::c30c:0:0:4: icmp_seq=3 ttl=61 time=29.6 ms
64 bytes from fd00::c30c:0:0:4: icmp_seq=4 ttl=61 time=26.9 ms
64 bytes from fd00::c30c:0:0:4: icmp_seq=5 ttl=61 time=24.8 ms
64 bytes from fd00::c30c:0:0:4: icmp_seq=6 ttl=61 time=34.7 ms
64 bytes from fd00::c30c:0:0:4: icmp_seq=7 ttl=61 time=31.9 ms
64 bytes from fd00::c30c:0:0:4: icmp_seq=8 ttl=61 time=24.8 ms
64 bytes from fd00::c30c:0:0:4: icmp_seq=9 ttl=61 time=31.7 ms
64 bytes from fd00::c30c:0:0:4: icmp_seq=10 ttl=61 time=30.8 ms
64 bytes from fd00::c30c:0:0:4: icmp_seq=11 ttl=61 time=27.4 ms
64 bytes from fd00::c30c:0:0:4: icmp_seq=12 ttl=61 time=24.3 ms
64 bytes from fd00::c30c:0:0:4: icmp_seq=13 ttl=61 time=40.1 ms
64 bytes from fd00::c30c:0:0:4: icmp_seq=14 ttl=61 time=34.9 ms
64 bytes from fd00::c30c:0:0:4: icmp_seq=15 ttl=61 time=30.9 ms
64 bytes from fd00::c30c:0:0:4: icmp_seq=16 ttl=61 time=24.5 ms
64 bytes from fd00::c30c:0:0:4: icmp_seq=17 ttl=61 time=25.5 ms
64 bytes from fd00::c30c:0:0:4: icmp_seq=18 ttl=61 time=29.4 ms
64 bytes from fd00::c30c:0:0:4: icmp_seq=19 ttl=61 time=31.4 ms
64 bytes from fd00::c30c:0:0:4: icmp_seq=20 ttl=61 time=24.6 ms
64 bytes from fd00::c30c:0:0:4: icmp_seq=21 ttl=61 time=37.4 ms
64 bytes from fd00::c30c:0:0:4: icmp_seq=22 ttl=61 time=38.1 ms
64 bytes from fd00::c30c:0:0:4: icmp_seq=23 ttl=61 time=23.3 ms
64 bytes from fd00::c30c:0:0:4: icmp_seq=24 ttl=61 time=41.0 ms
64 bytes from fd00::c30c:0:0:4: icmp_seq=25 ttl=61 time=30.6 ms
64 bytes from fd00::c30c:0:0:4: icmp_seq=26 ttl=61 time=36.9 ms
64 bytes from fd00::c30c:0:0:4: icmp_seq=27 ttl=61 time=40.0 ms
64 bytes from fd00::c30c:0:0:4: icmp_seq=28 ttl=61 time=37.1 ms
64 bytes from fd00::c30c:0:0:4: icmp_seq=29 ttl=61 time=42.3 ms
64 bytes from fd00::c30c:0:0:4: icmp_seq=30 ttl=61 time=31.2 ms

--- fd00::c30c:0:0:4 ping statistics ---
30 packets transmitted, 30 received, 0% packet loss, time 29036ms
rtt min/avg/max/mdev = 23.323/32.849/68.276/8.580 ms
