PING fd00::c30c:0:0:4(fd00::c30c:0:0:4) 56 data bytes
64 bytes from fd00::c30c:0:0:4: icmp_seq=1 ttl=61 time=77.6 ms
64 bytes from fd00::c30c:0:0:4: icmp_seq=2 ttl=61 time=75.9 ms
64 bytes from fd00::c30c:0:0:4: icmp_seq=3 ttl=61 time=25.8 ms
64 bytes from fd00::c30c:0:0:4: icmp_seq=4 ttl=61 time=76.0 ms
64 bytes from fd00::c30c:0:0:4: icmp_seq=5 ttl=61 time=38.8 ms
64 bytes from fd00::c30c:0:0:4: icmp_seq=6 ttl=61 time=25.4 ms
64 bytes from fd00::c30c:0:0:4: icmp_seq=7 ttl=61 time=68.4 ms
64 bytes from fd00::c30c:0:0:4: icmp_seq=8 ttl=61 time=28.6 ms
64 bytes from fd00::c30c:0:0:4: icmp_seq=9 ttl=61 time=28.4 ms
64 bytes from fd00::c30c:0:0:4: icmp_seq=10 ttl=61 time=25.5 ms
64 bytes from fd00::c30c:0:0:4: icmp_seq=11 ttl=61 time=31.0 ms
64 bytes from fd00::c30c:0:0:4: icmp_seq=12 ttl=61 time=30.7 ms
64 bytes from fd00::c30c:0:0:4: icmp_seq=13 ttl=61 time=25.1 ms
64 bytes from fd00::c30c:0:0:4: icmp_seq=14 ttl=61 time=37.7 ms
64 bytes from fd00::c30c:0:0:4: icmp_seq=15 ttl=61 time=46.0 ms
64 bytes from fd00::c30c:0:0:4: icmp_seq=16 ttl=61 time=44.4 ms
64 bytes from fd00::c30c:0:0:4: icmp_seq=17 ttl=61 time=35.4 ms
64 bytes from fd00::c30c:0:0:4: icmp_seq=18 ttl=61 time=36.1 ms
64 bytes from fd00::c30c:0:0:4: icmp_seq=19 ttl=61 time=38.4 ms
64 bytes from fd00::c30c:0:0:4: icmp_seq=20 ttl=61 time=76.5 ms
64 bytes from fd00::c30c:0:0:4: icmp_seq=21 ttl=61 time=34.0 ms
64 bytes from fd00::c30c:0:0:4: icmp_seq=22 ttl=61 time=58.3 ms
64 bytes from fd00::c30c:0:0:4: icmp_seq=23 ttl=61 time=40.7 ms
64 bytes from fd00::c30c:0:0:4: icmp_seq=24 ttl=61 time=35.7 ms
64 bytes from fd00::c30c:0:0:4: icmp_seq=25 ttl=61 time=32.6 ms
64 bytes from fd00::c30c:0:0:4: icmp_seq=26 ttl=61 time=30.7 ms
64 bytes from fd00::c30c:0:0:4: icmp_seq=27 ttl=61 time=31.1 ms
64 bytes from fd00::c30c:0:0:4: icmp_seq=28 ttl=61 time=24.0 ms
64 bytes from fd00::c30c:0:0:4: icmp_seq=29 ttl=61 time=37.9 ms
64 bytes from fd00::c30c:0:0:4: icmp_seq=30 ttl=61 time=36.6 ms

--- fd00::c30c:0:0:4 ping statistics ---
30 packets transmitted, 30 received, 0% packet loss, time 29042ms
rtt min/avg/max/mdev = 24.021/41.161/77.655/16.695 ms
