PING fd00::c30c:0:0:4(fd00::c30c:0:0:4) 56 data bytes
64 bytes from fd00::c30c:0:0:4: icmp_seq=1 ttl=61 time=65.4 ms
64 bytes from fd00::c30c:0:0:4: icmp_seq=2 ttl=61 time=31.2 ms
64 bytes from fd00::c30c:0:0:4: icmp_seq=3 ttl=61 time=34.5 ms
64 bytes from fd00::c30c:0:0:4: icmp_seq=4 ttl=61 time=34.3 ms
64 bytes from fd00::c30c:0:0:4: icmp_seq=5 ttl=61 time=38.4 ms
64 bytes from fd00::c30c:0:0:4: icmp_seq=6 ttl=61 time=38.1 ms
64 bytes from fd00::c30c:0:0:4: icmp_seq=7 ttl=61 time=36.5 ms
64 bytes from fd00::c30c:0:0:4: icmp_seq=8 ttl=61 time=36.4 ms
64 bytes from fd00::c30c:0:0:4: icmp_seq=9 ttl=61 time=41.0 ms
64 bytes from fd00::c30c:0:0:4: icmp_seq=10 ttl=61 time=23.2 ms
64 bytes from fd00::c30c:0:0:4: icmp_seq=11 ttl=61 time=25.7 ms
64 bytes from fd00::c30c:0:0:4: icmp_seq=12 ttl=61 time=34.8 ms
64 bytes from fd00::c30c:0:0:4: icmp_seq=13 ttl=61 time=72.3 ms
64 bytes from fd00::c30c:0:0:4: icmp_seq=14 ttl=61 time=23.8 ms
64 bytes from fd00::c30c:0:0:4: icmp_seq=15 ttl=61 time=25.7 ms
64 bytes from fd00::c30c:0:0:4: icmp_seq=16 ttl=61 time=51.9 ms
64 bytes from fd00::c30c:0:0:4: icmp_seq=17 ttl=61 time=36.4 ms
64 bytes from fd00::c30c:0:0:4: icmp_seq=18 ttl=61 time=28.3 ms
64 bytes from fd00::c30c:0:0:4: icmp_seq=19 ttl=61 time=36.1 ms
64 bytes from fd00::c30c:0:0:4: icmp_seq=20 ttl=61 time=36.6 ms
64 bytes from fd00::c30c:0:0:4: icmp_seq=21 ttl=61 time=34.7 ms
64 bytes from fd00::c30c:0:0:4: icmp_seq=22 ttl=61 time=38.2 ms
64 bytes from fd00::c30c:0:0:4: icmp_seq=23 ttl=61 time=35.7 ms
64 bytes from fd00::c30c:0:0:4: icmp_seq=24 ttl=61 time=38.3 ms
64 bytes from fd00::c30c:0:0:4: icmp_seq=25 ttl=61 time=39.3 ms
64 bytes from fd00::c30c:0:0:4: icmp_seq=26 ttl=61 time=64.0 ms
64 bytes from fd00::c30c:0:0:4: icmp_seq=27 ttl=61 time=62.8 ms
64 bytes from fd00::c30c:0:0:4: icmp_seq=28 ttl=61 time=31.0 ms
64 bytes from fd00::c30c:0:0:4: icmp_seq=29 ttl=61 time=54.0 ms
64 bytes from fd00::c30c:0:0:4: icmp_seq=30 ttl=61 time=27.7 ms

--- fd00::c30c:0:0:4 ping statistics ---
30 packets transmitted, 30 received, 0% packet loss, time 29038ms
rtt min/avg/max/mdev = 23.237/39.257/72.333/12.538 ms
