PING fd00::c30c:0:0:4(fd00::c30c:0:0:4) 56 data bytes
64 bytes from fd00::c30c:0:0:4: icmp_seq=1 ttl=61 time=69.3 ms
64 bytes from fd00::c30c:0:0:4: icmp_seq=2 ttl=61 time=34.7 ms
64 bytes from fd00::c30c:0:0:4: icmp_seq=3 ttl=61 time=70.3 ms
64 bytes from fd00::c30c:0:0:4: icmp_seq=4 ttl=61 time=26.1 ms
64 bytes from fd00::c30c:0:0:4: icmp_seq=5 ttl=61 time=24.5 ms
64 bytes from fd00::c30c:0:0:4: icmp_seq=6 ttl=61 time=30.3 ms
64 bytes from fd00::c30c:0:0:4: icmp_seq=7 ttl=61 time=52.4 ms
64 bytes from fd00::c30c:0:0:4: icmp_seq=8 ttl=61 time=38.5 ms
64 bytes from fd00::c30c:0:0:4: icmp_seq=9 ttl=61 time=37.5 ms
64 bytes from fd00::c30c:0:0:4: icmp_seq=10 ttl=61 time=77.7 ms
64 bytes from fd00::c30c:0:0:4: icmp_seq=11 ttl=61 time=36.6 ms
64 bytes from fd00::c30c:0:0:4: icmp_seq=12 ttl=61 time=37.8 ms
64 bytes from fd00::c30c:0:0:4: icmp_seq=13 ttl=61 time=27.4 ms
64 bytes from fd00::c30c:0:0:4: icmp_seq=14 ttl=61 time=30.7 ms
64 bytes from fd00::c30c:0:0:4: icmp_seq=15 ttl=61 time=30.8 ms
64 bytes from fd00::c30c:0:0:4: icmp_seq=16 ttl=61 time=23.7 ms
64 bytes from fd00::c30c:0:0:4: icmp_seq=17 ttl=61 time=26.5 ms
64 bytes from fd00::c30c:0:0:4: icmp_seq=18 ttl=61 time=68.9 ms
64 bytes from fd00::c30c:0:0:4: icmp_seq=19 ttl=61 time=28.0 ms
64 bytes from fd00::c30c:0:0:4: icmp_seq=20 ttl=61 time=26.8 ms
64 bytes from fd00::c30c:0:0:4: icmp_seq=21 ttl=61 time=27.3 ms
64 bytes from fd00::c30c:0:0:4: icmp_seq=22 ttl=61 time=30.5 ms
64 bytes from fd00::c30c:0:0:4: icmp_seq=23 ttl=61 time=25.4 ms
64 bytes from fd00::c30c:0:0:4: icmp_seq=24 ttl=61 time=30.8 ms
64 bytes from fd00::c30c:0:0:4: icmp_seq=25 ttl=61 time=30.4 ms
64 bytes from fd00::c30c:0:0:4: icmp_seq=26 ttl=61 time=73.4 ms
64 bytes from fd00::c30c:0:0:4: icmp_seq=27 ttl=61 time=75.9 ms
64 bytes from fd00::c30c:0:0:4: icmp_seq=28 ttl=61 time=37.2 ms
64 bytes from fd00::c30c:0:0:4: icmp_seq=29 ttl=61 time=42.1 ms
64 bytes from fd00::c30c:0:0:4: icmp_seq=30 ttl=61 time=37.4 ms

--- fd00::c30c:0:0:4 ping statistics ---
30 packets transmitted, 30 received, 0% packet loss, time 29040ms
rtt min/avg/max/mdev = 23.795/40.348/77.742/17.251 ms
