PING fd00::c30c:0:0:8(fd00::c30c:0:0:8) 56 data bytes
64 bytes from fd00::c30c:0:0:8: icmp_seq=1 ttl=57 time=117 ms
64 bytes from fd00::c30c:0:0:8: icmp_seq=2 ttl=57 time=94.1 ms
64 bytes from fd00::c30c:0:0:8: icmp_seq=3 ttl=57 time=62.2 ms
64 bytes from fd00::c30c:0:0:8: icmp_seq=4 ttl=57 time=60.4 ms
64 bytes from fd00::c30c:0:0:8: icmp_seq=5 ttl=57 time=66.6 ms
64 bytes from fd00::c30c:0:0:8: icmp_seq=6 ttl=57 time=110 ms
64 bytes from fd00::c30c:0:0:8: icmp_seq=7 ttl=57 time=91.2 ms
64 bytes from fd00::c30c:0:0:8: icmp_seq=8 ttl=57 time=84.3 ms
64 bytes from fd00::c30c:0:0:8: icmp_seq=9 ttl=57 time=104 ms
64 bytes from fd00::c30c:0:0:8: icmp_seq=10 ttl=57 time=122 ms
64 bytes from fd00::c30c:0:0:8: icmp_seq=11 ttl=57 time=87.1 ms
64 bytes from fd00::c30c:0:0:8: icmp_seq=12 ttl=57 time=93.7 ms
64 bytes from fd00::c30c:0:0:8: icmp_seq=13 ttl=57 time=89.9 ms
64 bytes from fd00::c30c:0:0:8: icmp_seq=14 ttl=57 time=97.1 ms
64 bytes from fd00::c30c:0:0:8: icmp_seq=15 ttl=57 time=109 ms
64 bytes from fd00::c30c:0:0:8: icmp_seq=16 ttl=57 time=80.2 ms
64 bytes from fd00::c30c:0:0:8: icmp_seq=17 ttl=57 time=52.8 ms
64 bytes from fd00::c30c:0:0:8: icmp_seq=18 ttl=57 time=128 ms
64 bytes from fd00::c30c:0:0:8: icmp_seq=19 ttl=57 time=115 ms
64 bytes from fd00::c30c:0:0:8: icmp_seq=20 ttl=57 time=97.5 ms
64 bytes from fd00::c30c:0:0:8: icmp_seq=21 ttl=57 time=91.0 ms
64 bytes from fd00::c30c:0:0:8: icmp_seq=22 ttl=57 time=104 ms
64 bytes from fd00::c30c:0:0:8: icmp_seq=23 ttl=57 time=73.8 ms
64 bytes from fd00::c30c:0:0:8: icmp_seq=24 ttl=57 time=71.8 ms
64 bytes from fd00::c30c:0:0:8: icmp_seq=25 ttl=57 time=62.6 ms
64 bytes from fd00::c30c:0:0:8: icmp_seq=26 ttl=57 time=90.6 ms
64 bytes from fd00::c30c:0:0:8: icmp_seq=27 ttl=57 time=135 ms
64 bytes from fd00::c30c:0:0:8: icmp_seq=28 ttl=57 time=127 ms
64 bytes from fd00::c30c:0:0:8: icmp_seq=29 ttl=57 time=61.1 ms
64 bytes from fd00::c30c:0:0:8: icmp_seq=30 ttl=57 time=104 ms

--- fd00::c30c:0:0:8 ping statistics ---
30 packets transmitted, 30 received, 0% packet loss, time 29037ms
rtt min/avg/max/mdev = 52.873/92.926/135.712/22.049 ms
