PING fd00::c30c:0:0:a(fd00::c30c:0:0:a) 56 data bytes
64 bytes from fd00::c30c:0:0:a: icmp_seq=1 ttl=55 time=130 ms
64 bytes from fd00::c30c:0:0:a: icmp_seq=2 ttl=55 time=73.5 ms
64 bytes from fd00::c30c:0:0:a: icmp_seq=3 ttl=55 time=151 ms
64 bytes from fd00::c30c:0:0:a: icmp_seq=4 ttl=55 time=118 ms
64 bytes from fd00::c30c:0:0:a: icmp_seq=5 ttl=55 time=109 ms
64 bytes from fd00::c30c:0:0:a: icmp_seq=6 ttl=55 time=78.8 ms
64 bytes from fd00::c30c:0:0:a: icmp_seq=7 ttl=55 time=101 ms
64 bytes from fd00::c30c:0:0:a: icmp_seq=8 ttl=55 time=120 ms
64 bytes from fd00::c30c:0:0:a: icmp_seq=9 ttl=55 time=77.5 ms
64 bytes from fd00::c30c:0:0:a: icmp_seq=10 ttl=55 time=89.6 ms
64 bytes from fd00::c30c:0:0:a: icmp_seq=11 ttl=55 time=96.5 ms
64 bytes from fd00::c30c:0:0:a: icmp_seq=12 ttl=55 time=97.7 ms
64 bytes from fd00::c30c:0:0:a: icmp_seq=13 ttl=55 time=110 ms
64 bytes from fd00::c30c:0:0:a: icmp_seq=14 ttl=55 time=78.0 ms
64 bytes from fd00::c30c:0:0:a: icmp_seq=15 ttl=55 time=130 ms
64 bytes from fd00::c30c:0:0:a: icmp_seq=16 ttl=55 time=126 ms
64 bytes from fd00::c30c:0:0:a: icmp_seq=17 ttl=55 time=90.9 ms
64 bytes from fd00::c30c:0:0:a: icmp_seq=18 ttl=55 time=150 ms
64 bytes from fd00::c30c:0:0:a: icmp_seq=19 ttl=55 time=141 ms
64 bytes from fd00::c30c:0:0:a: icmp_seq=20 ttl=55 time=125 ms
64 bytes from fd00::c30c:0:0:a: icmp_seq=21 ttl=55 time=77.6 ms
64 bytes from fd00::c30c:0:0:a: icmp_seq=22 ttl=55 time=86.0 ms
64 bytes from fd00::c30c:0:0:a: icmp_seq=23 ttl=55 time=115 ms
64 bytes from fd00::c30c:0:0:a: icmp_seq=24 ttl=55 time=97.4 ms
64 bytes from fd00::c30c:0:0:a: icmp_seq=25 ttl=55 time=93.4 ms
64 bytes from fd00::c30c:0:0:a: icmp_seq=26 ttl=55 time=82.1 ms
64 bytes from fd00::c30c:0:0:a: icmp_seq=27 ttl=55 time=110 ms
64 bytes from fd00::c30c:0:0:a: icmp_seq=28 ttl=55 time=94.0 ms
64 bytes from fd00::c30c:0:0:a: icmp_seq=29 ttl=55 time=81.0 ms
64 bytes from fd00::c30c:0:0:a: icmp_seq=30 ttl=55 time=84.6 ms

--- fd00::c30c:0:0:a ping statistics ---
30 packets transmitted, 30 received, 0% packet loss, time 29038ms
rtt min/avg/max/mdev = 73.504/104.073/151.470/22.390 ms
