PING fd00::c30c:0:0:a(fd00::c30c:0:0:a) 56 data bytes
64 bytes from fd00::c30c:0:0:a: icmp_seq=1 ttl=55 time=101 ms
64 bytes from fd00::c30c:0:0:a: icmp_seq=2 ttl=55 time=126 ms
64 bytes from fd00::c30c:0:0:a: icmp_seq=3 ttl=55 time=82.7 ms
64 bytes from fd00::c30c:0:0:a: icmp_seq=4 ttl=55 time=76.5 ms
64 bytes from fd00::c30c:0:0:a: icmp_seq=5 ttl=55 time=123 ms
64 bytes from fd00::c30c:0:0:a: icmp_seq=6 ttl=55 time=125 ms
64 bytes from fd00::c30c:0:0:a: icmp_seq=7 ttl=55 time=81.3 ms
64 bytes from fd00::c30c:0:0:a: icmp_seq=8 ttl=55 time=93.7 ms
64 bytes from fd00::c30c:0:0:a: icmp_seq=9 ttl=55 time=91.4 ms
64 bytes from fd00::c30c:0:0:a: icmp_seq=10 ttl=55 time=87.3 ms
64 bytes from fd00::c30c:0:0:a: icmp_seq=11 ttl=55 time=126 ms
64 bytes from fd00::c30c:0:0:a: icmp_seq=12 ttl=55 time=88.9 ms
64 bytes from fd00::c30c:0:0:a: icmp_seq=13 ttl=55 time=107 ms
64 bytes from fd00::c30c:0:0:a: icmp_seq=14 ttl=55 time=110 ms
64 bytes from fd00::c30c:0:0:a: icmp_seq=15 ttl=55 time=78.6 ms
64 bytes from fd00::c30c:0:0:a: icmp_seq=16 ttl=55 time=113 ms
64 bytes from fd00::c30c:0:0:a: icmp_seq=17 ttl=55 time=90.1 ms
64 bytes from fd00::c30c:0:0:a: icmp_seq=18 ttl=55 time=87.2 ms
64 bytes from fd00::c30c:0:0:a: icmp_seq=19 ttl=55 time=93.1 ms
64 bytes from fd00::c30c:0:0:a: icmp_seq=20 ttl=55 time=126 ms
64 bytes from fd00::c30c:0:0:a: icmp_seq=21 ttl=55 time=79.8 ms
64 bytes from fd00::c30c:0:0:a: icmp_seq=22 ttl=55 time=81.7 ms
64 bytes from fd00::c30c:0:0:a: icmp_seq=23 ttl=55 time=86.2 ms
64 bytes from fd00::c30c:0:0:a: icmp_seq=24 ttl=55 time=100 ms
64 bytes from fd00::c30c:0:0:a: icmp_seq=25 ttl=55 time=141 ms
64 bytes from fd00::c30c:0:0:a: icmp_seq=26 ttl=55 time=83.9 ms
64 bytes from fd00::c30c:0:0:a: icmp_seq=27 ttl=55 time=86.5 ms
64 bytes from fd00::c30c:0:0:a: icmp_seq=28 ttl=55 time=89.2 ms
64 bytes from fd00::c30c:0:0:a: icmp_seq=29 ttl=55 time=76.8 ms
64 bytes from fd00::c30c:0:0:a: icmp_seq=30 ttl=55 time=78.7 ms

--- fd00::c30c:0:0:a ping statistics ---
30 packets transmitted, 30 received, 0% packet loss, time 29038ms
rtt min/avg/max/mdev = 76.506/97.266/141.304/18.194 ms
